<?xml version="1.0" encoding="UTF-8" standalone="no"?>
<!-- Created with Inkscape (http://www.inkscape.org/) -->

<svg
   xmlns:dc="http://purl.org/dc/elements/1.1/"
   xmlns:cc="http://creativecommons.org/ns#"
   xmlns:rdf="http://www.w3.org/1999/02/22-rdf-syntax-ns#"
   xmlns:svg="http://www.w3.org/2000/svg"
   xmlns="http://www.w3.org/2000/svg"
   xmlns:sodipodi="http://sodipodi.sourceforge.net/DTD/sodipodi-0.dtd"
   xmlns:inkscape="http://www.inkscape.org/namespaces/inkscape"
   width="24"
   height="24"
   viewBox="0 0 24 24"
   id="svg6465"
   version="1.1"
   inkscape:version="0.91 r13725"
   sodipodi:docname="PG_Conduit_AxisStyle.svg"
   inkscape:export-filename="C:\Users\David Stasiuk\Dropbox\Proving Ground\Code\Bitbucket\dev-pglibs\ProvingGround.Conduit\Graphics\PNG\PG_Conduit_CurveStyle.png"
   inkscape:export-xdpi="100.242"
   inkscape:export-ydpi="100.242">
  <defs
     id="defs6467" />
  <sodipodi:namedview
     id="base"
     pagecolor="#ffffff"
     bordercolor="#666666"
     borderopacity="1.0"
     inkscape:pageopacity="0.0"
     inkscape:pageshadow="2"
     inkscape:zoom="5.6"
     inkscape:cx="-26.591355"
     inkscape:cy="45.41217"
     inkscape:document-units="px"
     inkscape:current-layer="layer1"
     showgrid="false"
     units="px"
     inkscape:window-width="1920"
     inkscape:window-height="1137"
     inkscape:window-x="-8"
     inkscape:window-y="1072"
     inkscape:window-maximized="1" />
  <metadata
     id="metadata6470">
    <rdf:RDF>
      <cc:Work
         rdf:about="">
        <dc:format>image/svg+xml</dc:format>
        <dc:type
           rdf:resource="http://purl.org/dc/dcmitype/StillImage" />
        <dc:title></dc:title>
      </cc:Work>
    </rdf:RDF>
  </metadata>
  <g
     inkscape:label="Layer 1"
     inkscape:groupmode="layer"
     id="layer1"
     transform="translate(0,-1028.3622)">
    <path
       style="fill:none;fill-rule:evenodd;stroke:#c1c1c1;stroke-width:4.26837826;stroke-linecap:butt;stroke-linejoin:miter;stroke-miterlimit:4;stroke-dasharray:none;stroke-opacity:1"
       d="m 4.3238329,1050.2066 0,-6.8872"
       id="path4181"
       inkscape:connector-curvature="0" />
    <path
       style="fill:none;fill-rule:evenodd;stroke:#808080;stroke-width:4.26837826;stroke-linecap:butt;stroke-linejoin:miter;stroke-miterlimit:4;stroke-dasharray:none;stroke-opacity:1"
       d="m 8.9912176,1050.3806 0,-13.0789"
       id="path4181-5"
       inkscape:connector-curvature="0"
       sodipodi:nodetypes="cc" />
    <path
       style="fill:none;fill-rule:evenodd;stroke:#c1c1c1;stroke-width:4.26837826;stroke-linecap:butt;stroke-linejoin:miter;stroke-miterlimit:4;stroke-dasharray:none;stroke-opacity:1"
       d="m 15.576707,1050.2936 0,-10.1571"
       id="path4181-9"
       inkscape:connector-curvature="0"
       sodipodi:nodetypes="cc" />
    <path
       style="fill:none;fill-rule:evenodd;stroke:#808080;stroke-width:4.26837826;stroke-linecap:butt;stroke-linejoin:miter;stroke-miterlimit:4;stroke-dasharray:none;stroke-opacity:1"
       d="m 20.244092,1050.2589 0,-17.4618"
       id="path4181-5-2"
       inkscape:connector-curvature="0"
       sodipodi:nodetypes="cc" />
    <path
       style="fill:none;fill-rule:evenodd;stroke:#ff0073;stroke-width:1.07799149px;stroke-linecap:butt;stroke-linejoin:miter;stroke-opacity:1"
       d="m 1.1269938,1050.7632 22.2500002,0"
       id="path4179"
       inkscape:connector-curvature="0" />
    <g
       id="g5392"
       transform="matrix(0.81427611,0,0,0.81427611,-173.06268,891.84408)">
      <g
         id="g5356" />
      <g
         id="g5358" />
      <g
         id="g5360" />
      <g
         id="g5362" />
      <g
         id="g5364" />
      <g
         id="g5366" />
      <g
         id="g5368" />
      <g
         id="g5370" />
      <g
         id="g5372" />
      <g
         id="g5374" />
      <g
         id="g5376" />
      <g
         id="g5378" />
      <g
         id="g5380" />
      <g
         id="g5382" />
      <g
         id="g5384" />
      <g
         transform="matrix(0.03575827,0,0,0.03575827,224.39661,177.23918)"
         id="g5813">
        <path
           sodipodi:nodetypes="ccsccscscscscssccccccccccssscsscssccccsccc"
           inkscape:connector-curvature="0"
           d="m 451.512,172.29632 c -15.317,-16.368 -36.206,-24.457 -62.67,-24.267 -14.66,-11.421 -31.601,-17.129 -50.819,-17.129 -4.186,0 -8.278,0.284 -12.278,0.855 -10.849,-6.28 -22.176,-9.803 -33.972,-10.562 l 0,-48.251008 c 0,-19.985 -7.225,-37.163 -21.697,-51.534 C 255.61,7.0403117 238.383,-0.1466883 218.399,-0.1466883 c -19.607,0 -36.641,7.233 -51.108,21.6980003 -14.465,14.469 -21.698,31.599 -21.698,51.394 l 0,106.780008 c -11.419,-4.185 -23.601,-6.279 -36.545,-6.279 -23.219998,0 -41.207998,7.758 -53.958998,23.267 -12.753,15.514 -19.126,35.166 -19.126,58.957 0,7.231 1.663,13.849 4.996,19.841 3.333,5.992 8.042,11.232 14.134,15.705 6.089,4.469 12.085,8.322 17.987,11.56 5.901,3.241 12.752,6.759 20.557,10.564 7.802998,3.806 13.700998,6.95 17.699998,9.421 10.467,6.656 22.744,16.18 36.829,28.545 0.572,0.386 2.19,1.721 4.854,4 2.667,2.286 4.714,4.093 6.139,5.428 1.427,1.334 3.474,3.285 6.136,5.852 2.664,2.566 4.805,4.856 6.423,6.852 1.615,1.995 3.33,4.144 5.137,6.427 1.809,2.279 3.14,4.517 3.999,6.707 0.859,2.19 1.287,4.237 1.287,6.14 l 0,82.228 c 0,10.089 3.568,18.698 10.705,25.837 7.139,7.139 15.752,10.708 25.841,10.708 l 182.716,0 c 10.088,0 18.705,-3.569 25.844,-10.708 7.132,-7.135 10.708,-15.748 10.708,-25.837 l 0,-82.228 c 0,-11.231 5.616,-32.456 16.848,-63.666 13.134,-35.978 19.694,-66.626 19.694,-91.933 -0.006,-26.842 -7.654,-48.446 -22.985,-64.817 z m -195.5209,30.06731 c 7.327,-7.421 -62.33763,-193.553482 -52.62763,-193.553482 9.898,0 -12.19708,74.130864 -15.69275,10.847999 -23.42607,76.214911 20.04572,201.285383 20.04572,211.184383 273.52984,282.72534 24.30231,-2.42681 48.27466,-28.4789 z"
           id="path4751-5"
           style="fill:#ffffff;fill-opacity:1;stroke:none;stroke-opacity:1" />
        <g
           style="fill:#000000;fill-opacity:1;stroke:none;stroke-opacity:1"
           id="g4749">
          <path
             inkscape:connector-curvature="0"
             style="fill:#000000;fill-opacity:1;stroke:none;stroke-opacity:1"
             id="path4751"
             d="m 452.098,172.443 c -15.317,-16.368 -36.206,-24.457 -62.67,-24.267 -14.66,-11.421 -31.601,-17.129 -50.819,-17.129 -4.186,0 -8.278,0.284 -12.278,0.855 -10.849,-6.28 -22.176,-9.803 -33.972,-10.562 l 0,-48.251 c 0,-19.985 -7.225,-37.163 -21.697,-51.534 C 256.196,7.187 238.969,0 218.985,0 199.378,0 182.344,7.233 167.877,21.698 153.412,36.167 146.179,53.297 146.179,73.092 l 0,106.78 c -11.419,-4.185 -23.601,-6.279 -36.545,-6.279 -23.22,0 -41.208,7.758 -53.959,23.267 -12.753,15.514 -19.126,35.166 -19.126,58.957 0,7.231 1.663,13.849 4.996,19.841 3.333,5.992 8.042,11.232 14.134,15.705 6.089,4.469 12.085,8.322 17.987,11.56 5.901,3.241 12.752,6.759 20.557,10.564 7.803,3.806 13.701,6.95 17.7,9.421 10.467,6.656 22.744,16.18 36.829,28.545 0.572,0.386 2.19,1.721 4.854,4 2.667,2.286 4.714,4.093 6.139,5.428 1.427,1.334 3.474,3.285 6.136,5.852 2.664,2.566 4.805,4.856 6.423,6.852 1.615,1.995 3.33,4.144 5.137,6.427 1.809,2.279 3.14,4.517 3.999,6.707 0.859,2.19 1.287,4.237 1.287,6.14 l 0,82.228 c 0,10.089 3.568,18.698 10.705,25.837 7.139,7.139 15.752,10.708 25.841,10.708 l 182.716,0 c 10.088,0 18.705,-3.569 25.844,-10.708 7.132,-7.135 10.708,-15.748 10.708,-25.837 l 0,-82.228 c 0,-11.231 5.616,-32.456 16.848,-63.666 13.134,-35.978 19.694,-66.626 19.694,-91.933 -0.006,-26.842 -7.654,-48.446 -22.985,-64.817 z m -55.525,297.214 c -3.621,3.614 -7.905,5.428 -12.854,5.428 -4.949,0 -9.227,-1.817 -12.847,-5.428 -3.614,-3.613 -5.421,-7.898 -5.421,-12.847 0,-4.949 1.807,-9.232 5.421,-12.847 3.62,-3.617 7.898,-5.428 12.847,-5.428 4.949,0 9.232,1.811 12.854,5.428 3.613,3.614 5.421,7.898 5.421,12.847 0,4.949 -1.81,9.234 -5.421,12.847 z m 32.832,-179.724 c -6.092,18.75 -12.183,37.164 -18.274,55.251 -6.091,18.079 -9.137,33.975 -9.137,47.674 l 0,9.134 -182.72,0 0,-9.134 c 0,-13.511 -5.424,-26.833 -16.272,-39.968 -4.76,-5.708 -14.849,-15.327 -30.264,-28.838 -15.415,-13.703 -29.215,-24.366 -41.396,-31.978 -3.999,-2.478 -10.183,-5.995 -18.558,-10.567 -26.458,-12.56 -39.687,-21.121 -39.687,-25.693 0,-13.513 2.902,-24.506 8.709,-32.976 5.802,-8.47 15.082,-12.703 27.834,-12.703 8.186,0 16.228,1.427 24.126,4.283 7.898,2.852 14.372,5.992 19.414,9.419 5.042,3.427 10.278,6.567 15.703,9.423 5.429,2.855 10.044,4.283 13.849,4.283 l 0,-164.451 c 0,-9.514 3.666,-17.983 10.994,-25.41 7.327,-7.421 15.843,-11.132 25.553,-11.132 9.898,0 18.462,3.615 25.697,10.848 7.233,7.232 10.848,15.798 10.848,25.697 l 0,94.501 c 3.239,-2.858 7.756,-5.236 13.56,-7.139 5.805,-1.903 11.088,-2.856 15.845,-2.856 13.135,0 24.455,5.042 33.969,15.131 6.092,-3.427 12.662,-5.14 19.705,-5.14 7.042,0 14.037,1.667 20.984,4.996 6.943,3.333 11.939,7.854 14.985,13.562 5.708,-0.95 11.036,-1.427 15.985,-1.427 31.781,0 47.681,17.985 47.681,53.958 0.008,15.418 -3.041,32.505 -9.133,51.252 z" />
        </g>
      </g>
    </g>
    <path
       style="fill:none;fill-rule:evenodd;stroke:#ff0073;stroke-width:1.07799149px;stroke-linecap:butt;stroke-linejoin:miter;stroke-opacity:1"
       d="m 1.2475291,1051.322 0,-22.25"
       id="path4179-5"
       inkscape:connector-curvature="0" />
  </g>
</svg>
