<?xml version="1.0" encoding="UTF-8" standalone="no"?>
<!-- Created with Inkscape (http://www.inkscape.org/) -->

<svg
   xmlns:dc="http://purl.org/dc/elements/1.1/"
   xmlns:cc="http://creativecommons.org/ns#"
   xmlns:rdf="http://www.w3.org/1999/02/22-rdf-syntax-ns#"
   xmlns:svg="http://www.w3.org/2000/svg"
   xmlns="http://www.w3.org/2000/svg"
   xmlns:sodipodi="http://sodipodi.sourceforge.net/DTD/sodipodi-0.dtd"
   xmlns:inkscape="http://www.inkscape.org/namespaces/inkscape"
   id="svg4136"
   version="1.1"
   inkscape:version="0.91 r13725"
   width="514.28571"
   height="514.28571"
   viewBox="0 0 514.28571 514.28571"
   sodipodi:docname="PG_Conduit_ColorList.svg"
   inkscape:export-filename="C:\Users\David Stasiuk\Dropbox\Proving Ground\Code\Bitbucket\Conduit\Graphics\PNG\PG_Conduit_ColorList.png"
   inkscape:export-xdpi="4.1999998"
   inkscape:export-ydpi="4.1999998">
  <metadata
     id="metadata4142">
    <rdf:RDF>
      <cc:Work
         rdf:about="">
        <dc:format>image/svg+xml</dc:format>
        <dc:type
           rdf:resource="http://purl.org/dc/dcmitype/StillImage" />
        <dc:title></dc:title>
      </cc:Work>
    </rdf:RDF>
  </metadata>
  <defs
     id="defs4140" />
  <sodipodi:namedview
     pagecolor="#ffffff"
     bordercolor="#666666"
     borderopacity="1"
     objecttolerance="10"
     gridtolerance="10"
     guidetolerance="10"
     inkscape:pageopacity="0"
     inkscape:pageshadow="2"
     inkscape:window-width="1920"
     inkscape:window-height="1137"
     id="namedview4138"
     showgrid="false"
     inkscape:zoom="0.64484211"
     inkscape:cx="-364.70959"
     inkscape:cy="-17.986947"
     inkscape:window-x="-8"
     inkscape:window-y="1072"
     inkscape:window-maximized="1"
     inkscape:current-layer="svg4136" />
  <g
     id="g4214"
     transform="translate(0,-6.2030599)"
     style="stroke:none">
    <circle
       r="39.199139"
       cy="88.410713"
       cx="96.004585"
       id="path4146"
       style="opacity:1;fill:#ff009b;fill-opacity:0.99607843;stroke:none;stroke-width:2.54811049;stroke-linecap:butt;stroke-linejoin:round;stroke-miterlimit:4;stroke-dasharray:none;stroke-dashoffset:1.79227889;stroke-opacity:1" />
    <rect
       y="63.272015"
       x="163.17354"
       height="50.533356"
       width="275.54645"
       id="rect4148"
       style="opacity:1;fill:#ff009b;fill-opacity:0.99607843;stroke:none;stroke-width:2.85026503;stroke-linecap:butt;stroke-linejoin:round;stroke-miterlimit:4;stroke-dasharray:none;stroke-dashoffset:1.79227889;stroke-opacity:1" />
  </g>
  <g
     id="g4218"
     transform="translate(0,14.473828)"
     style="fill:#00ffff;fill-opacity:0.99607843;stroke:none">
    <circle
       r="39.199139"
       cy="181.86206"
       cx="96.004585"
       id="path4146-7"
       style="opacity:1;fill:#00ffff;fill-opacity:0.99607843;stroke:none;stroke-width:2.54811049;stroke-linecap:butt;stroke-linejoin:round;stroke-miterlimit:4;stroke-dasharray:none;stroke-dashoffset:1.79227889;stroke-opacity:1" />
    <rect
       y="156.63803"
       x="163.17354"
       height="50.533356"
       width="275.54645"
       id="rect4148-6"
       style="opacity:1;fill:#00ffff;fill-opacity:0.99607843;stroke:none;stroke-width:2.85026503;stroke-linecap:butt;stroke-linejoin:round;stroke-miterlimit:4;stroke-dasharray:none;stroke-dashoffset:1.79227889;stroke-opacity:1" />
  </g>
  <g
     id="g4222"
     transform="translate(0,35.150723)"
     style="stroke:none;fill:#ffb9e3;fill-opacity:0.99607843">
    <circle
       r="39.199139"
       cy="275.31339"
       cx="96.004585"
       id="path4146-0"
       style="opacity:1;fill:#ffb9e3;fill-opacity:0.99607843;stroke:none;stroke-width:2.54811049;stroke-linecap:butt;stroke-linejoin:round;stroke-miterlimit:4;stroke-dasharray:none;stroke-dashoffset:1.79227889;stroke-opacity:1" />
    <rect
       y="250.00404"
       x="163.17354"
       height="50.533356"
       width="275.54645"
       id="rect4148-4"
       style="opacity:1;fill:#ffb9e3;fill-opacity:0.99607843;stroke:none;stroke-width:2.85026503;stroke-linecap:butt;stroke-linejoin:round;stroke-miterlimit:4;stroke-dasharray:none;stroke-dashoffset:1.79227889;stroke-opacity:1" />
  </g>
  <g
     id="g4226"
     transform="translate(0,55.827618)"
     style="stroke:none;fill:#9a005f;fill-opacity:0.94117647">
    <circle
       r="39.199139"
       cy="368.76471"
       cx="96.004585"
       id="path4146-0-7"
       style="opacity:1;fill:#9a005f;fill-opacity:0.94117647;stroke:none;stroke-width:2.54811049;stroke-linecap:butt;stroke-linejoin:round;stroke-miterlimit:4;stroke-dasharray:none;stroke-dashoffset:1.79227889;stroke-opacity:1" />
    <rect
       y="343.37006"
       x="163.17354"
       height="50.533356"
       width="275.54645"
       id="rect4148-4-1"
       style="opacity:1;fill:#9a005f;fill-opacity:0.94117647;stroke:none;stroke-width:2.85026503;stroke-linecap:butt;stroke-linejoin:round;stroke-miterlimit:4;stroke-dasharray:none;stroke-dashoffset:1.79227889;stroke-opacity:1" />
  </g>
</svg>
